<svg width="148" height="175" viewBox="0 0 148 175" fill="none" xmlns="http://www.w3.org/2000/svg">
<path d="M47.3011 52.6367H75.0678C78.5486 52.6367 81.1065 55.9019 80.2731 59.2814L51.9159 174.286H14.998L47.3011 52.6367Z" fill="#CC6600"/>
<path d="M131.519 112.292L117.483 123.474C116.076 124.595 114.574 125.592 112.994 126.454L100.37 133.346L109.599 174.286H147.671L131.519 112.292Z" fill="#CC6600"/>
<path d="M81.9114 121.649H23.0736C11.9983 113.227 3.07648 95.5259 0 87.7279H77.2967C83.0651 87.7279 99.2166 80.7096 99.2166 59.6549C99.2166 42.8112 84.2188 35.0911 77.2967 33.9214H0C3.69178 18.0135 16.9207 4.67882 23.0736 0H81.9114C95.7556 0 130.366 15.2062 132.673 61.9944C134.519 99.4249 100.37 120.48 81.9114 121.649Z" fill="#CC6600"/>
</svg>
